C:\Users\agung.towidjojo\IdeaProjects\project\src\main\java\com\hackathon\rocky\dao\UserTokenRepository.java
C:\Users\agung.towidjojo\IdeaProjects\project\src\main\java\com\hackathon\rocky\dto\ContractTransactionDto.java
C:\Users\agung.towidjojo\IdeaProjects\project\src\main\java\com\hackathon\rocky\entity\UserToken.java
C:\Users\agung.towidjojo\IdeaProjects\project\src\main\java\com\hackathon\rocky\dao\CouponTransactionRepository.java
C:\Users\agung.towidjojo\IdeaProjects\project\src\main\java\com\hackathon\rocky\controller\ARTransactionController.java
C:\Users\agung.towidjojo\IdeaProjects\project\src\main\java\com\hackathon\rocky\dto\CouponRequest.java
C:\Users\agung.towidjojo\IdeaProjects\project\src\main\java\com\hackathon\rocky\controller\ARLocationController.java
C:\Users\agung.towidjojo\IdeaProjects\project\src\main\java\com\hackathon\rocky\controller\UserTokenController.java
C:\Users\agung.towidjojo\IdeaProjects\project\src\main\java\com\hackathon\rocky\service\ContractTransService.java
C:\Users\agung.towidjojo\IdeaProjects\project\src\main\java\com\hackathon\rocky\service\Impl\UserTokenServiceImpl.java
C:\Users\agung.towidjojo\IdeaProjects\project\src\main\java\com\hackathon\rocky\dto\ResponseDTO.java
C:\Users\agung.towidjojo\IdeaProjects\project\src\main\java\com\hackathon\rocky\dao\CouponTypeRepository.java
C:\Users\agung.towidjojo\IdeaProjects\project\src\main\java\com\hackathon\rocky\service\PartnerService.java
C:\Users\agung.towidjojo\IdeaProjects\project\src\main\java\com\hackathon\rocky\dao\ARLocationRepository.java
C:\Users\agung.towidjojo\IdeaProjects\project\src\main\java\com\hackathon\rocky\dto\ErrorExc.java
C:\Users\agung.towidjojo\IdeaProjects\project\src\main\java\com\hackathon\rocky\exceptionHandler\CustomErrorResponse.java
C:\Users\agung.towidjojo\IdeaProjects\project\src\main\java\com\hackathon\rocky\service\CouponTypeService.java
C:\Users\agung.towidjojo\IdeaProjects\project\src\main\java\com\hackathon\rocky\exceptionHandler\ErrorMessageException.java
C:\Users\agung.towidjojo\IdeaProjects\project\src\main\java\com\hackathon\rocky\entity\Transaction.java
C:\Users\agung.towidjojo\IdeaProjects\project\src\main\java\com\hackathon\rocky\controller\ContractTransController.java
C:\Users\agung.towidjojo\IdeaProjects\project\src\main\java\com\hackathon\rocky\entity\Partner.java
C:\Users\agung.towidjojo\IdeaProjects\project\src\main\java\com\hackathon\rocky\dao\PartnerRepository.java
C:\Users\agung.towidjojo\IdeaProjects\project\src\main\java\com\hackathon\rocky\service\Impl\ARLocationImageServiceImpl.java
C:\Users\agung.towidjojo\IdeaProjects\project\src\main\java\com\hackathon\rocky\dto\UserToken\UserTokenDto.java
C:\Users\agung.towidjojo\IdeaProjects\project\src\main\java\com\hackathon\rocky\dto\JWTUserDetails.java
C:\Users\agung.towidjojo\IdeaProjects\project\src\main\java\com\hackathon\rocky\security\JWTAuthenticationEntryPoint.java
C:\Users\agung.towidjojo\IdeaProjects\project\src\main\java\com\hackathon\rocky\entity\CouponType.java
C:\Users\agung.towidjojo\IdeaProjects\project\src\main\java\com\hackathon\rocky\controller\ARLocationImageController.java
C:\Users\agung.towidjojo\IdeaProjects\project\src\main\java\com\hackathon\rocky\controller\PartnerController.java
C:\Users\agung.towidjojo\IdeaProjects\project\src\main\java\com\hackathon\rocky\entity\ARTransaction.java
C:\Users\agung.towidjojo\IdeaProjects\project\src\main\java\com\hackathon\rocky\service\ARLocationImageService.java
C:\Users\agung.towidjojo\IdeaProjects\project\src\main\java\com\hackathon\rocky\dto\RegisterDto.java
C:\Users\agung.towidjojo\IdeaProjects\project\src\main\java\com\hackathon\rocky\dao\ContractTransactionRepository.java
C:\Users\agung.towidjojo\IdeaProjects\project\src\main\java\com\hackathon\rocky\service\Impl\PartnerServiceImpl.java
C:\Users\agung.towidjojo\IdeaProjects\project\src\main\java\com\hackathon\rocky\service\Impl\ARLocationServiceImpl.java
C:\Users\agung.towidjojo\IdeaProjects\project\src\main\java\com\hackathon\rocky\controller\TransController.java
C:\Users\agung.towidjojo\IdeaProjects\project\src\main\java\com\hackathon\rocky\config\JWTConfig.java
C:\Users\agung.towidjojo\IdeaProjects\project\src\main\java\com\hackathon\rocky\dto\UserDto.java
C:\Users\agung.towidjojo\IdeaProjects\project\src\main\java\com\hackathon\rocky\service\Impl\CouponTransactionImpl.java
C:\Users\agung.towidjojo\IdeaProjects\project\src\main\java\com\hackathon\rocky\service\Impl\ContractTransServiceImpl.java
C:\Users\agung.towidjojo\IdeaProjects\project\src\main\java\com\hackathon\rocky\service\UserTokenService.java
C:\Users\agung.towidjojo\IdeaProjects\project\src\main\java\com\hackathon\rocky\dto\ARTransactionDto.java
C:\Users\agung.towidjojo\IdeaProjects\project\src\main\java\com\hackathon\rocky\dao\UserRepository.java
C:\Users\agung.towidjojo\IdeaProjects\project\src\main\java\com\hackathon\rocky\service\Impl\ARTransactionServiceImpl.java
C:\Users\agung.towidjojo\IdeaProjects\project\src\main\java\com\hackathon\rocky\service\Impl\UserServiceImpl.java
C:\Users\agung.towidjojo\IdeaProjects\project\src\main\java\com\hackathon\rocky\dto\UserARHistoryDto.java
C:\Users\agung.towidjojo\IdeaProjects\project\src\main\java\com\hackathon\rocky\security\JWTAuthenticationTokenFilter.java
C:\Users\agung.towidjojo\IdeaProjects\project\src\main\java\com\hackathon\rocky\security\JWTAuthenticationProvider.java
C:\Users\agung.towidjojo\IdeaProjects\project\src\main\java\com\hackathon\rocky\generator\StringSequenceIdentifier.java
C:\Users\agung.towidjojo\IdeaProjects\project\src\main\java\com\hackathon\rocky\dto\CouponTransactionDto.java
C:\Users\agung.towidjojo\IdeaProjects\project\src\main\java\com\hackathon\rocky\dao\ARTransactionRepository.java
C:\Users\agung.towidjojo\IdeaProjects\project\src\main\java\com\hackathon\rocky\MainApp.java
C:\Users\agung.towidjojo\IdeaProjects\project\src\main\java\com\hackathon\rocky\dto\CouponDto.java
C:\Users\agung.towidjojo\IdeaProjects\project\src\main\java\com\hackathon\rocky\service\Impl\CustomUserDetailsService.java
C:\Users\agung.towidjojo\IdeaProjects\project\src\main\java\com\hackathon\rocky\service\Impl\CouponTypeServiceImpl.java
C:\Users\agung.towidjojo\IdeaProjects\project\src\main\java\com\hackathon\rocky\controller\CouponTypeController.java
C:\Users\agung.towidjojo\IdeaProjects\project\src\main\java\com\hackathon\rocky\service\CouponTransactionService.java
C:\Users\agung.towidjojo\IdeaProjects\project\src\main\java\com\hackathon\rocky\dao\CouponRepository.java
C:\Users\agung.towidjojo\IdeaProjects\project\src\main\java\com\hackathon\rocky\exceptionHandler\CustomGlobalExceptionHandler.java
C:\Users\agung.towidjojo\IdeaProjects\project\src\main\java\com\hackathon\rocky\dto\JWTAuthenticationToken.java
C:\Users\agung.towidjojo\IdeaProjects\project\src\main\java\com\hackathon\rocky\security\JWTGenerator.java
C:\Users\agung.towidjojo\IdeaProjects\project\src\main\java\com\hackathon\rocky\controller\UserController.java
C:\Users\agung.towidjojo\IdeaProjects\project\src\main\java\com\hackathon\rocky\service\ARLocationService.java
C:\Users\agung.towidjojo\IdeaProjects\project\src\main\java\com\hackathon\rocky\service\CouponService.java
C:\Users\agung.towidjojo\IdeaProjects\project\src\main\java\com\hackathon\rocky\entity\User.java
C:\Users\agung.towidjojo\IdeaProjects\project\src\main\java\com\hackathon\rocky\security\JWTValidator.java
C:\Users\agung.towidjojo\IdeaProjects\project\src\main\java\com\hackathon\rocky\controller\LoginController.java
C:\Users\agung.towidjojo\IdeaProjects\project\src\main\java\com\hackathon\rocky\entity\Coupon.java
C:\Users\agung.towidjojo\IdeaProjects\project\src\main\java\com\hackathon\rocky\service\ARTransactionService.java
C:\Users\agung.towidjojo\IdeaProjects\project\src\main\java\com\hackathon\rocky\dto\UserHistoryDto.java
C:\Users\agung.towidjojo\IdeaProjects\project\src\main\java\com\hackathon\rocky\controller\CouponController.java
C:\Users\agung.towidjojo\IdeaProjects\project\src\main\java\com\hackathon\rocky\dto\UserToken\UserTokenResponseDto.java
C:\Users\agung.towidjojo\IdeaProjects\project\src\main\java\com\hackathon\rocky\entity\ContractTransaction.java
C:\Users\agung.towidjojo\IdeaProjects\project\src\main\java\com\hackathon\rocky\Sequence\generatorId.java
C:\Users\agung.towidjojo\IdeaProjects\project\src\main\java\com\hackathon\rocky\entity\ARLocation.java
C:\Users\agung.towidjojo\IdeaProjects\project\src\main\java\com\hackathon\rocky\dto\JwtUser.java
C:\Users\agung.towidjojo\IdeaProjects\project\src\main\java\com\hackathon\rocky\security\JWTSuccessHandler.java
C:\Users\agung.towidjojo\IdeaProjects\project\src\main\java\com\hackathon\rocky\service\UserService.java
C:\Users\agung.towidjojo\IdeaProjects\project\src\main\java\com\hackathon\rocky\service\Impl\CouponServiceImpl.java
